<svg xmlns="http://www.w3.org/2000/svg" viewBox="0 0 128 128" width="128" height="128">
  <path d="M36.5 6.2A64 64 0 0 0 64 128C14.5 81.8 3.1 24.8 36.5 6.2zM64 128A64 64 0 0 0 91.5 6.2c33.4 18.6 22 75.6-27.5 121.8z" fill="#323e56"/>
  <path d="M87.7 33.8a23.7 23.7 0 1 1-47.4 0 23.7 23.7 0 0 1 47.4 0z" fill="#323e56"/>
</svg>